LAMMPS (2 Jul 2021)
OMP_NUM_THREADS environment is not set. Defaulting to 1 thread. (src/comm.cpp:98)
  using 1 OpenMP thread(s) per MPI task
Reading data file ...
  triclinic box = (0.0000000 0.0000000 0.0000000) to (15.361046 13.303056 12.542241) with tilt (7.6805228 7.6805228 4.4343519)
  2 by 1 by 2 MPI processor grid
  reading atoms ...
  128 atoms
  read_data CPU = 0.001 seconds
Reading sw potential file Si.sw with DATE: 2007-06-11
Neighbor list info ...
  update every 1 steps, delay 10 steps, check yes
  max neighbors/atom: 2000, page size: 100000
  master list distance cutoff = 5.77118
  ghost atom cutoff = 5.77118
  binsize = 2.88559, bins = 11 7 5
  1 neighbor lists, perpetual/occasional/extra = 1 0 0
  (1) pair sw, perpetual
      attributes: full, newton on
      pair build: full/bin/atomonly
      stencil: full/bin/3d
      bin: standard
Setting up Verlet run ...
  Unit style    : metal
  Current step  : 0
  Time step     : 0.001
Per MPI rank memory allocation (min/avg/max) = 4.324 | 4.325 | 4.325 Mbytes
Step Temp E_pair E_mol TotEng Press 
       0            0   -555.08391            0   -555.08391   0.49658743 
Loop time of 2.8055e-06 on 4 procs for 0 steps with 128 atoms

53.5% CPU use with 4 MPI tasks x 1 OpenMP threads

MPI task timing breakdown:
Section |  min time  |  avg time  |  max time  |%varavg| %total
---------------------------------------------------------------
Pair    | 0          | 0          | 0          |   0.0 |  0.00
Neigh   | 0          | 0          | 0          |   0.0 |  0.00
Comm    | 0          | 0          | 0          |   0.0 |  0.00
Output  | 0          | 0          | 0          |   0.0 |  0.00
Modify  | 0          | 0          | 0          |   0.0 |  0.00
Other   |            | 2.806e-06  |            |       |100.00

Nlocal:        32.0000 ave          41 max          22 min
Histogram: 1 0 1 0 0 0 0 0 1 1
Nghost:        431.000 ave         441 max         422 min
Histogram: 1 1 0 0 0 0 0 1 0 1
Neighs:         0.00000 ave           0 max           0 min
Histogram: 4 0 0 0 0 0 0 0 0 0
FullNghs:      1088.00 ave        1394 max         748 min
Histogram: 1 0 1 0 0 0 0 0 1 1

Total # of neighbors = 4352
Ave neighs/atom = 34.000000
Neighbor list builds = 0
Dangerous builds = 0
volume
2562.99254496909
energy
-555.08391466458
force
0.215345155231634
pressure
0.496587429942179
Total wall time: 0:00:00
